<?xml version="1.0" encoding="utf-8"?>
<!-- Generator: Adobe Illustrator 19.2.1, SVG Export Plug-In . SVG Version: 6.00 Build 0)  -->
<svg version="1.1" id="Layer_2" xmlns="http://www.w3.org/2000/svg" xmlns:xlink="http://www.w3.org/1999/xlink" x="0px" y="0px"
	 width="83px" height="83px" viewBox="0 0 83 83" style="enable-background:new 0 0 83 83;" xml:space="preserve">
<style type="text/css">
	.st0{clip-path:url(#SVGID_1_);}
	.st1{fill:#ED2939;}
	.st2{fill:#002395;}
	.st3{fill:#FFFFFF;}
</style>
<g>
	<defs>
		<ellipse id="SVGID_3_" cx="41.5" cy="41.5" rx="41.5" ry="41.5"/>
	</defs>
	<clipPath id="SVGID_1_">
		<use xlink:href="#SVGID_3_"  style="overflow:visible;"/>
	</clipPath>
	<g class="st0">
		<rect x="58.3" y="-4.4" class="st1" width="25.9" height="90.5"/>
		<rect x="-0.7" y="-4.5" class="st2" width="25.9" height="90.5"/>
		
			<rect x="25.2" y="-4.5" transform="matrix(-1 -1.224647e-16 1.224647e-16 -1 83.4164 81.6036)" class="st3" width="33.1" height="90.5"/>
	</g>
</g>
</svg>
